0.6 	 0.6627094972067039 	 0.6627094972067039 	 0.6627094972067039 	 ecrm:P102_has_title
0.65 	 0.7611395178962745 	 0.7978560490045942 	 0.7276536312849162 	 ecrm:P102_has_title
0.7 	 0.7771942985746437 	 0.839546191247974 	     0.723463687150838  	 ecrm:P102_has_title
0.75 	 0.7547746371275783 	 0.8330522765598651 	 0.6899441340782123 	 ecrm:P102_has_title
0.8 	 0.761757902852737 	     0.8502581755593803 	 0.6899441340782123 	 ecrm:P102_has_title
0.85 	 0.6862896979085981 	 0.7704347826086957 	 0.6187150837988827 	 ecrm:P102_has_title
0.9 	 0.6357827476038339 	 0.7425373134328358 	 0.5558659217877095 	 ecrm:P102_has_title
0.95 	 0.6253061224489795 	 0.7524557956777996 	 0.5349162011173184 	 ecrm:P102_has_title
0.8 	 0.761757902852737 	 0.8502581755593803 	 0.6899441340782123 	 ecrm:P102_has_title
0.9 	 0.6357827476038339 	 0.7425373134328358 	 0.5558659217877095 	 ecrm:P102_has_title
0.8 	 0.761757902852737 	 0.8502581755593803 	 0.6899441340782123 	 ecrm:P102_has_title
